vOW_on_SIKE_HW-SW_co-design/src/hardware/fp2_sub_add_correction/fp2_sub_add_correction_tb/fp2_sub_add_correction_tb.vcd
$date
	Tue Dec 22 12:04:19 2020
$end
$version
	Icarus Verilog
$end
$timescale
	1ps
$end
$scope module fp2_sub_add_correction_tb $end
$var wire 1 ! busy $end
$var wire 1 " done $end
$var wire 64 # mem_a_0_dout [63:0] $end
$var wire 1 $ mem_a_0_rd_addr $end
$var wire 1 % mem_a_0_rd_en $end
$var wire 64 & mem_a_1_dout [63:0] $end
$var wire 1 ' mem_a_1_rd_addr $end
$var wire 1 ( mem_a_1_rd_en $end
$var wire 64 ) mem_b_0_dout [63:0] $end
$var wire 1 * mem_b_0_rd_addr $end
$var wire 1 + mem_b_0_rd_en $end
$var wire 64 , mem_b_1_dout [63:0] $end
$var wire 1 - mem_b_1_rd_addr $end
$var wire 1 . mem_b_1_rd_en $end
$var wire 64 / mem_c_0_dout [63:0] $end
$var wire 64 0 mem_c_1_dout [63:0] $end
$var wire 64 1 px2_mem_dout [63:0] $end
$var wire 1 2 px2_mem_rd_addr $end
$var wire 1 3 px2_mem_rd_en $end
$var wire 64 4 px4_mem_dout [63:0] $end
$var wire 1 5 px4_mem_rd_addr $end
$var wire 1 6 px4_mem_rd_en $end
$var reg 1 7 clk $end
$var reg 3 8 cmd [2:0] $end
$var reg 1 9 extension_field_op $end
$var integer 32 : file_a_0 [31:0] $end
$var integer 32 ; file_a_1 [31:0] $end
$var integer 32 < file_b_0 [31:0] $end
$var integer 32 = file_b_1 [31:0] $end
$var integer 32 > file_c_0 [31:0] $end
$var integer 32 ? file_c_1 [31:0] $end
$var integer 32 @ i [31:0] $end
$var reg 64 A mem_a_0_din [63:0] $end
$var reg 1 B mem_a_0_wr_addr $end
$var reg 1 C mem_a_0_wr_en $end
$var reg 64 D mem_a_1_din [63:0] $end
$var reg 1 E mem_a_1_wr_addr $end
$var reg 1 F mem_a_1_wr_en $end
$var reg 64 G mem_b_0_din [63:0] $end
$var reg 1 H mem_b_0_wr_addr $end
$var reg 1 I mem_b_0_wr_en $end
$var reg 64 J mem_b_1_din [63:0] $end
$var reg 1 K mem_b_1_wr_addr $end
$var reg 1 L mem_b_1_wr_en $end
$var reg 1 M mem_c_0_rd_addr $end
$var reg 1 N mem_c_0_rd_en $end
$var reg 1 O mem_c_1_rd_addr $end
$var reg 1 P mem_c_1_rd_en $end
$var reg 1 Q rst $end
$var integer 32 R scan_file_a_0 [31:0] $end
$var integer 32 S scan_file_a_1 [31:0] $end
$var integer 32 T scan_file_b_0 [31:0] $end
$var integer 32 U scan_file_b_1 [31:0] $end
$var reg 1 V start $end
$var integer 32 W start_time [31:0] $end
$scope module DUT $end
$var wire 1 X adder_1_start $end
$var wire 1 Y clk $end
$var wire 3 Z cmd [2:0] $end
$var wire 1 [ comparator_enabled $end
$var wire 1 \ extension_field_op $end
$var wire 1 ] init_carry_in $end
$var wire 1 ^ left_adder_carry_in $end
$var wire 1 _ left_adder_carry_out $end
$var wire 64 ` left_adder_digit_a [63:0] $end
$var wire 64 a left_adder_digit_b [63:0] $end
$var wire 1 b left_adder_digit_in_valid $end
$var wire 1 c left_adder_digit_out_valid $end
$var wire 64 d left_adder_digit_res [63:0] $end
$var wire 1 e left_adder_done $end
$var wire 1 f left_adder_start $end
$var wire 1 g left_comparator_a_bigger_than_b $end
$var wire 64 h left_comparator_digit_a [63:0] $end
$var wire 64 i left_comparator_digit_b [63:0] $end
$var wire 1 j left_comparator_done $end
$var wire 64 k mem_a_0_dout [63:0] $end
$var wire 1 $ mem_a_0_rd_addr $end
$var wire 1 % mem_a_0_rd_en $end
$var wire 64 l mem_a_1_dout [63:0] $end
$var wire 1 ' mem_a_1_rd_addr $end
$var wire 1 ( mem_a_1_rd_en $end
$var wire 64 m mem_b_0_dout [63:0] $end
$var wire 1 * mem_b_0_rd_addr $end
$var wire 1 + mem_b_0_rd_en $end
$var wire 64 n mem_b_1_dout [63:0] $end
$var wire 1 - mem_b_1_rd_addr $end
$var wire 1 . mem_b_1_rd_en $end
$var wire 64 o mem_c_0_add_0_din [63:0] $end
$var wire 64 p mem_c_0_add_0_dout [63:0] $end
$var wire 1 q mem_c_0_add_0_rd_addr $end
$var wire 1 r mem_c_0_add_0_rd_en $end
$var wire 1 s mem_c_0_add_0_wr_addr $end
$var wire 1 t mem_c_0_add_0_wr_en $end
$var wire 64 u mem_c_0_add_1_din [63:0] $end
$var wire 64 v mem_c_0_add_1_dout [63:0] $end
$var wire 1 w mem_c_0_add_1_wr_addr $end
$var wire 1 x mem_c_0_add_1_wr_en $end
$var wire 64 y mem_c_0_dout [63:0] $end
$var wire 1 z mem_c_0_rd_addr $end
$var wire 1 { mem_c_0_rd_en $end
$var wire 1 | mem_c_0_wr_addr $end
$var wire 64 } mem_c_1_add_0_din [63:0] $end
$var wire 64 ~ mem_c_1_add_0_dout [63:0] $end
$var wire 1 !" mem_c_1_add_0_rd_addr $end
$var wire 1 "" mem_c_1_add_0_rd_en $end
$var wire 1 #" mem_c_1_add_0_wr_addr $end
$var wire 1 $" mem_c_1_add_0_wr_en $end
$var wire 64 %" mem_c_1_add_1_din [63:0] $end
$var wire 64 &" mem_c_1_add_1_dout [63:0] $end
$var wire 1 '" mem_c_1_add_1_wr_addr $end
$var wire 1 (" mem_c_1_add_1_wr_en $end
$var wire 64 )" mem_c_1_dout [63:0] $end
$var wire 1 *" mem_c_1_rd_addr $end
$var wire 1 +" mem_c_1_rd_en $end
$var wire 64 ," px2_mem_dout [63:0] $end
$var wire 1 2 px2_mem_rd_addr $end
$var wire 1 3 px2_mem_rd_en $end
$var wire 64 -" px4_mem_dout [63:0] $end
$var wire 1 5 px4_mem_rd_addr $end
$var wire 1 6 px4_mem_rd_en $end
$var wire 1 ." right_adder_carry_in $end
$var wire 1 /" right_adder_carry_out $end
$var wire 64 0" right_adder_digit_a [63:0] $end
$var wire 64 1" right_adder_digit_b [63:0] $end
$var wire 1 2" right_adder_digit_in_valid $end
$var wire 1 3" right_adder_digit_out_valid $end
$var wire 64 4" right_adder_digit_res [63:0] $end
$var wire 1 5" right_adder_done $end
$var wire 1 6" right_adder_start $end
$var wire 1 7" right_comparator_a_bigger_than_b $end
$var wire 64 8" right_comparator_digit_a [63:0] $end
$var wire 64 9" right_comparator_digit_b [63:0] $end
$var wire 1 :" right_comparator_digit_valid $end
$var wire 1 ;" right_comparator_done $end
$var wire 1 <" right_comparator_start $end
$var wire 1 =" rst $end
$var wire 1 >" start $end
$var reg 1 ?" add_0_running $end
$var reg 1 @" add_0_running_pre $end
$var reg 1 A" add_1_running $end
$var reg 1 B" add_1_running_pre $end
$var reg 1 C" add_counter $end
$var reg 1 D" busy $end
$var reg 1 E" done $end
$var reg 1 F" left_comparator_digit_valid $end
$var reg 1 G" left_comparator_start $end
$var reg 1 H" left_fpadd_correction_needed $end
$var reg 1 I" left_fpsub_correction_needed $end
$var reg 1 J" rd_counter $end
$var reg 1 K" rd_counter_buf $end
$var reg 1 L" right_fpadd_correction_needed $end
$var reg 1 M" right_fpsub_correction_needed $end
$scope module fp_left_adder_inst $end
$var wire 1 N" adder_carry_out $end
$var wire 64 O" adder_din_a [63:0] $end
$var wire 64 P" adder_din_b [63:0] $end
$var wire 64 Q" adder_dout [63:0] $end
$var wire 1 ^ carry_in $end
$var wire 1 Y clk $end
$var wire 64 R" digit_a [63:0] $end
$var wire 64 S" digit_b [63:0] $end
$var wire 1 b digit_in_valid $end
$var wire 1 =" rst $end
$var wire 1 f start $end
$var reg 1 T" adder_carry_in $end
$var reg 1 U" carry_out $end
$var reg 1 V" counter $end
$var reg 1 W" digit_out_valid $end
$var reg 64 X" digit_res [63:0] $end
$var reg 1 Y" done $end
$var reg 1 Z" running $end
$scope module unit_adder_inst $end
$var wire 1 [" carry_in $end
$var wire 1 N" carry_out $end
$var wire 64 \" din_a [63:0] $end
$var wire 64 ]" din_b [63:0] $end
$var wire 64 ^" dout [63:0] $end
$var wire 65 _" dout_full [64:0] $end
$upscope $end
$upscope $end
$scope module fp_right_adder_inst $end
$var wire 1 `" adder_carry_out $end
$var wire 64 a" adder_din_a [63:0] $end
$var wire 64 b" adder_din_b [63:0] $end
$var wire 64 c" adder_dout [63:0] $end
$var wire 1 ." carry_in $end
$var wire 1 Y clk $end
$var wire 64 d" digit_a [63:0] $end
$var wire 64 e" digit_b [63:0] $end
$var wire 1 2" digit_in_valid $end
$var wire 1 =" rst $end
$var wire 1 6" start $end
$var reg 1 f" adder_carry_in $end
$var reg 1 g" carry_out $end
$var reg 1 h" counter $end
$var reg 1 i" digit_out_valid $end
$var reg 64 j" digit_res [63:0] $end
$var reg 1 k" done $end
$var reg 1 l" running $end
$scope module unit_adder_inst $end
$var wire 1 m" carry_in $end
$var wire 1 `" carry_out $end
$var wire 64 n" din_a [63:0] $end
$var wire 64 o" din_b [63:0] $end
$var wire 64 p" dout [63:0] $end
$var wire 65 q" dout_full [64:0] $end
$upscope $end
$upscope $end
$scope module left_serial_comparator_inst $end
$var wire 1 Y clk $end
$var wire 1 r" comp_array_0 $end
$var wire 1 s" comp_array_1 $end
$var wire 64 t" digit_a [63:0] $end
$var wire 1 u" digit_a_bigger_than_b $end
$var wire 1 v" digit_a_equal_to_b $end
$var wire 64 w" digit_b [63:0] $end
$var wire 1 x" digit_valid $end
$var wire 1 =" rst $end
$var wire 1 y" start $end
$var reg 1 z" a_bigger_than_b $end
$var reg 1 {" counter $end
$var reg 1 |" done $end
$var reg 1 }" done_buf $end
$var reg 1 ~" running $end
$upscope $end
$scope module right_serial_comparator_inst $end
$var wire 1 Y clk $end
$var wire 1 !# comp_array_0 $end
$var wire 1 "# comp_array_1 $end
$var wire 64 ## digit_a [63:0] $end
$var wire 1 $# digit_a_bigger_than_b $end
$var wire 1 %# digit_a_equal_to_b $end
$var wire 64 &# digit_b [63:0] $end
$var wire 1 :" digit_valid $end
$var wire 1 =" rst $end
$var wire 1 <" start $end
$var reg 1 '# a_bigger_than_b $end
$var reg 1 (# counter $end
$var reg 1 )# done $end
$var reg 1 *# done_buf $end
$var reg 1 +# running $end
$upscope $end
$scope module single_port_mem_inst_c_0_add_0 $end
$var wire 1 ,# address $end
$var wire 1 Y clock $end
$var wire 64 -# data [63:0] $end
$var wire 1 t wr_en $end
$var reg 64 .# q [63:0] $end
$upscope $end
$scope module single_port_mem_inst_c_0_add_1 $end
$var wire 1 /# address $end
$var wire 1 Y clock $end
$var wire 64 0# data [63:0] $end
$var wire 1 x wr_en $end
$var reg 64 1# q [63:0] $end
$upscope $end
$scope module single_port_mem_inst_c_1_add_0 $end
$var wire 1 2# address $end
$var wire 1 Y clock $end
$var wire 64 3# data [63:0] $end
$var wire 1 $" wr_en $end
$var reg 64 4# q [63:0] $end
$upscope $end
$scope module single_port_mem_inst_c_1_add_1 $end
$var wire 1 5# address $end
$var wire 1 Y clock $end
$var wire 64 6# data [63:0] $end
$var wire 1 (" wr_en $end
$var reg 64 7# q [63:0] $end
$upscope $end
$scope module delay_inst_adder_1_start $end
$var wire 1 Y clk $end
$var wire 1 8# din $end
$var wire 1 X dout $end
$var wire 1 =" rst $end
$scope begin gen_delay[0] $end
$upscope $end
$scope begin gen_delay[1] $end
$upscope $end
$scope begin gen_delay[2] $end
$upscope $end
$upscope $end
$scope module delay_inst_mem_c_0_wr_addr $end
$var wire 1 Y clk $end
$var wire 1 9# din $end
$var wire 1 | dout $end
$var wire 1 =" rst $end
$scope begin gen_delay[0] $end
$upscope $end
$upscope $end
$upscope $end
$scope module single_port_mem_inst_a_0 $end
$var wire 1 :# address $end
$var wire 1 Y clock $end
$var wire 64 ;# data [63:0] $end
$var wire 1 <# wr_en $end
$var reg 64 =# q [63:0] $end
$upscope $end
$scope module single_port_mem_inst_b_0 $end
$var wire 1 ># address $end
$var wire 1 Y clock $end
$var wire 64 ?# data [63:0] $end
$var wire 1 @# wr_en $end
$var reg 64 A# q [63:0] $end
$upscope $end
$scope module single_port_mem_inst_a_1 $end
$var wire 1 B# address $end
$var wire 1 Y clock $end
$var wire 64 C# data [63:0] $end
$var wire 1 D# wr_en $end
$var reg 64 E# q [63:0] $end
$upscope $end
$scope module single_port_mem_inst_b_1 $end
$var wire 1 F# address $end
$var wire 1 Y clock $end
$var wire 64 G# data [63:0] $end
$var wire 1 H# wr_en $end
$var reg 64 I# q [63:0] $end
$upscope $end
$scope module single_port_mem_inst_px2 $end
$var wire 1 J# address $end
$var wire 1 Y clock $end
$var wire 64 K# data [63:0] $end
$var wire 1 L# wr_en $end
$var reg 64 M# q [63:0] $end
$upscope $end
$scope module single_port_mem_inst_px4 $end
$var wire 1 N# address $end
$var wire 1 Y clock $end
$var wire 64 O# data [63:0] $end
$var wire 1 P# wr_en $end
$var reg 64 Q# q [63:0] $end
$upscope $end
$upscope $end
$enddefinitions $end
#0
$dumpvars
bx Q#
0P#
b0 O#
0N#
bx M#
0L#
b0 K#
0J#
bx I#
0H#
b0 G#
xF#
bx E#
0D#
b0 C#
xB#
bx A#
0@#
b0 ?#
x>#
bx =#
0<#
b0 ;#
x:#
x9#
x8#
bx 7#
bx 6#
x5#
bx 4#
bx 3#
x2#
bx 1#
bx 0#
x/#
bx .#
bx -#
x,#
x+#
x*#
x)#
x(#
x'#
b0 &#
x%#
0$#
b0 ##
z"#
z!#
x~"
x}"
x|"
x{"
xz"
xy"
xx"
b0 w"
xv"
0u"
b0 t"
zs"
zr"
bx q"
bx p"
bx o"
bx n"
xm"
xl"
xk"
bx j"
xi"
xh"
xg"
xf"
bx e"
bx d"
bx c"
bx b"
bx a"
x`"
bx _"
bx ^"
bx ]"
bx \"
x["
xZ"
xY"
bx X"
xW"
xV"
xU"
xT"
bx S"
bx R"
bx Q"
bx P"
bx O"
xN"
xM"
xL"
xK"
xJ"
xI"
xH"
xG"
xF"
xE"
xD"
xC"
xB"
xA"
x@"
x?"
0>"
0="
x<"
x;"
x:"
b0 9"
b0 8"
x7"
x6"
x5"
bx 4"
x3"
x2"
bx 1"
bx 0"
x/"
0."
bx -"
bx ,"
0+"
0*"
bx )"
x("
x'"
bx &"
bx %"
x$"
x#"
x""
x!"
bx ~
bx }
z|
0{
0z
bx y
xx
xw
bx v
bx u
xt
xs
xr
xq
bx p
bx o
bx n
bx m
bx l
bx k
xj
b0 i
b0 h
xg
xf
xe
bx d
xc
xb
bx a
bx `
x_
x^
0]
1\
0[
b0 Z
0Y
zX
b0 W
0V
bx U
bx T
bx S
bx R
0Q
0P
0O
0N
0M
0L
0K
b0 J
0I
0H
b0 G
0F
0E
b0 D
0C
0B
b0 A
bx @
bx ?
bx >
bx =
bx <
bx ;
bx :
19
b0 8
07
06
05
bx 4
03
02
bx 1
bx 0
bx /
x.
x-
bx ,
x+
x*
bx )
x(
x'
bx &
x%
x$
bx #
x"
x!
$end
#5000
0%#
0v"
0:"
0<"
xs"
xr"
x"#
x!#
zX
x|
0F"
0x"
0G"
0y"
b101100000011100111101000000110111111111111111111111111111111110 M#
b101100000011100111101000000110111111111111111111111111111111110 1
b101100000011100111101000000110111111111111111111111111111111110 ,"
b1011000000111001111010000001101111111111111111111111111111111100 Q#
b1011000000111001111010000001101111111111111111111111111111111100 4
b1011000000111001111010000001101111111111111111111111111111111100 -"
17
1Y
#10000
07
0Y
#15000
0*#
0}"
17
1Y
#20000
07
0Y
#25000
0|"
0j
0)#
0;"
xX
17
1Y
#30000
07
0Y
#35000
17
1Y
#40000
07
0Y
#45000
1Q
1="
17
1Y
#50000
07
0Y
#55000
b0 c"
b0 p"
0`"
b0 0"
b0 d"
b0 1"
b0 e"
b0 q"
b0 a"
b0 n"
b0 b"
b0 o"
b0 Q"
b0 ^"
0N"
05#
02#
0!"
b0 `
b0 R"
b0 a
b0 S"
02"
b0 _"
b0 O"
b0 \"
b0 P"
b0 ]"
0B#
0F#
0>#
0:#
0'"
0#"
0^
06"
08#
0("
0/#
0$"
0,#
0q
0""
0b
0'
0-
0*
0$
0w
0s
0f
b0 %"
b0 6#
b0 }
b0 3#
b0 u
b0 0#
b0 o
b0 -#
0x
0t
0M"
0I"
0L"
0H"
0K"
09#
0J"
0C"
0E"
0"
0D"
0!
0A"
0B"
0r
0?"
0@"
0(
0.
0+
0%
0|
0X
0(#
0'#
07"
0+#
0"#
0!#
0{"
0z"
0g
0~"
0s"
0r"
b0 j"
b0 4"
0g"
0/"
0k"
05"
0i"
03"
0h"
0f"
0m"
0l"
b0 X"
b0 d
0U"
0_
0Y"
0e
0W"
0c
0V"
0T"
0["
0Z"
17
1Y
#60000
07
0Y
#65000
0Q
0="
17
1Y
#70000
07
0Y
#75000
1L
1H#
1F
1D#
1I
1@#
1C
1<#
17
1Y
b10000000000000000000000000000110 =
b10000000000000000000000000000101 ;
b10000000000000000000000000000100 <
b10000000000000000000000000000011 :
#80000
b1 U
b1001000000100011001010000010111011100010100111001111011001011000 J
b1001000000100011001010000010111011100010100111001111011001011000 G#
b1 S
b101110011111111110001011011111111001101001011000011100110110111 D
b101110011111111110001011011111111001101001011000011100110110111 C#
b1 T
b1000111110100000100011001000011101100101111111010100111111000000 G
b1000111110100000100011001000011101100101111111010100111111000000 ?#
b1 R
b1100010010010110001001111001101111011000111111001101100011 A
b1100010010010110001001111001101111011000111111001101100011 ;#
b0 @
07
0Y
#85000
bx =#
bx #
bx k
bx A#
bx )
bx m
bx E#
bx &
bx l
bx I#
bx ,
bx n
17
1Y
#90000
1F#
1B#
1>#
1:#
07
0Y
b101101 J
b101101 G#
b1000010 D
b1000010 C#
1K
1E
b11010 G
b11010 ?#
b10110 A
b10110 ;#
1H
1B
b1 @
#95000
bx I#
bx ,
bx n
bx E#
bx &
bx l
bx A#
bx )
bx m
bx =#
bx #
bx k
17
1Y
#100000
0F#
0B#
0>#
0:#
0L
0H#
0F
0D#
0I
0@#
0C
0<#
07
0Y
b10 @
#105000
b1100010010010110001001111001101111011000111111001101100011 =#
b1100010010010110001001111001101111011000111111001101100011 #
b1100010010010110001001111001101111011000111111001101100011 k
b1000111110100000100011001000011101100101111111010100111111000000 A#
b1000111110100000100011001000011101100101111111010100111111000000 )
b1000111110100000100011001000011101100101111111010100111111000000 m
b101110011111111110001011011111111001101001011000011100110110111 E#
b101110011111111110001011011111111001101001011000011100110110111 &
b101110011111111110001011011111111001101001011000011100110110111 l
b1001000000100011001010000010111011100010100111001111011001011000 I#
b1001000000100011001010000010111011100010100111001111011001011000 ,
b1001000000100011001010000010111011100010100111001111011001011000 n
17
1Y
#110000
1^
1."
1]
16"
1f
b101 8
b101 Z
1V
1>"
07
0Y
b1101110 W
#115000
b1 c"
b1 p"
b1 Q"
b1 ^"
1D"
1!
1@"
1(
1.
1+
1%
1f"
1m"
b1 q"
1l"
1T"
1["
b1 _"
1Z"
17
1Y
#120000
0^
0."
06"
0]
0f
0V
0>"
07
0Y
#125000
b110111111011100110101111101000100011101011000110000100110100111 b"
b110111111011100110101111101000100011101011000110000100110100111 o"
b1100110011011100100111011001000011101010100011110100001101011111 c"
b1100110011011100100111011001000011101010100011110100001101011111 p"
b111000001011111011100110111100010011010000000101011000000111111 P"
b111000001011111011100110111100010011010000000101011000000111111 ]"
b110111111011100110101111101000100011101011000110000100110100111 1"
b110111111011100110101111101000100011101011000110000100110100111 e"
b1100110011011100100111011001000011101010100011110100001101011111 q"
b101110011111111110001011011111111001101001011000011100110110111 a"
b101110011111111110001011011111111001101001011000011100110110111 n"
b111001101110001110011000001011100001001011001101010001110100011 Q"
b111001101110001110011000001011100001001011001101010001110100011 ^"
1B#
1F#
1>#
1:#
b111000001011111011100110111100010011010000000101011000000111111 a
b111000001011111011100110111100010011010000000101011000000111111 S"
b101110011111111110001011011111111001101001011000011100110110111 0"
b101110011111111110001011011111111001101001011000011100110110111 d"
12"
b111001101110001110011000001011100001001011001101010001110100011 _"
b1100010010010110001001111001101111011000111111001101100011 O"
b1100010010010110001001111001101111011000111111001101100011 \"
1'
1-
1*
1$
b1100010010010110001001111001101111011000111111001101100011 `
b1100010010010110001001111001101111011000111111001101100011 R"
1b
1J"
1?"
17
1Y
#130000
07
0Y
#135000
1`"
b1111111111111111111111111111111111111111111111111111111111010010 b"
b1111111111111111111111111111111111111111111111111111111111010010 o"
b1111111111111111111111111111111111111111111111111111111111100101 P"
b1111111111111111111111111111111111111111111111111111111111100101 ]"
b1111111111111111111111111111111111111111111111111111111111010010 1"
b1111111111111111111111111111111111111111111111111111111111010010 e"
b1111111111111111111111111111111111111111111111111111111111100101 a
b1111111111111111111111111111111111111111111111111111111111100101 S"
b1000010 a"
b1000010 n"
b10110 O"
b10110 \"
0B#
0F#
0>#
0:#
1$"
b1000010 0"
b1000010 d"
b10110 `
b10110 R"
0'
0-
0*
0$
b1100110011011100100111011001000011101010100011110100001101011111 }
b1100110011011100100111011001000011101010100011110100001101011111 3#
b10100 c"
b10100 p"
b111001101110001110011000001011100001001011001101010001110100011 o
b111001101110001110011000001011100001001011001101010001110100011 -#
1t
b1111111111111111111111111111111111111111111111111111111111111011 Q"
b1111111111111111111111111111111111111111111111111111111111111011 ^"
b101101 I#
b101101 ,
b101101 n
b1000010 E#
b1000010 &
b1000010 l
b11010 A#
b11010 )
b11010 m
b10110 =#
b10110 #
b10110 k
1K"
19#
0@"
0(
0.
0+
0%
b1100110011011100100111011001000011101010100011110100001101011111 j"
b1100110011011100100111011001000011101010100011110100001101011111 4"
1i"
13"
1h"
0f"
0m"
b10000000000000000000000000000000000000000000000000000000000010100 q"
b111001101110001110011000001011100001001011001101010001110100011 X"
b111001101110001110011000001011100001001011001101010001110100011 d
1W"
1c
1V"
0T"
0["
b1111111111111111111111111111111111111111111111111111111111111011 _"
17
1Y
#140000
07
0Y
#145000
0`"
12#
b0 b"
b0 o"
b0 Q"
b0 ^"
b0 1"
b0 e"
18#
1#"
1,#
b0 a
b0 S"
02"
b0 P"
b0 ]"
b0 _"
b0 O"
b0 \"
b0 a"
b0 n"
b1111111111111111111111111111111111111111111111111111111111111011 o
b1111111111111111111111111111111111111111111111111111111111111011 -#
b10100 }
b10100 3#
b1 c"
b1 p"
1s
0b
b0 `
b0 R"
b0 0"
b0 d"
1Y"
1e
b1111111111111111111111111111111111111111111111111111111111111011 X"
b1111111111111111111111111111111111111111111111111111111111111011 d
0V"
1g"
1/"
1k"
15"
b10100 j"
b10100 4"
0h"
1f"
1m"
b1 q"
bx .#
bx p
bx 4#
bx ~
1|
0?"
b1100010010010110001001111001101111011000111111001101100011 =#
b1100010010010110001001111001101111011000111111001101100011 #
b1100010010010110001001111001101111011000111111001101100011 k
b1000111110100000100011001000011101100101111111010100111111000000 A#
b1000111110100000100011001000011101100101111111010100111111000000 )
b1000111110100000100011001000011101100101111111010100111111000000 m
b101110011111111110001011011111111001101001011000011100110110111 E#
b101110011111111110001011011111111001101001011000011100110110111 &
b101110011111111110001011011111111001101001011000011100110110111 l
b1001000000100011001010000010111011100010100111001111011001011000 I#
b1001000000100011001010000010111011100010100111001111011001011000 ,
b1001000000100011001010000010111011100010100111001111011001011000 n
17
1Y
#150000
07
0Y
#155000
b10100 %"
b10100 6#
b0 }
b0 3#
1'"
1!"
0#"
02#
b1111111111111111111111111111111111111111111111111111111111111011 u
b1111111111111111111111111111111111111111111111111111111111111011 0#
1w
1q
b0 o
b0 -#
0s
08#
0$"
0,#
0t
1I"
1C"
bx 4#
bx ~
bx .#
bx p
0k"
05"
0i"
03"
0l"
0Y"
0e
0W"
0c
0Z"
17
1Y
#160000
07
0Y
#165000
b111001101110001110011000001011100001001011001101010001110100011 .#
b111001101110001110011000001011100001001011001101010001110100011 p
b1100110011011100100111011001000011101010100011110100001101011111 4#
b1100110011011100100111011001000011101010100011110100001101011111 ~
17
1Y
#170000
07
0Y
#175000
16"
1f
1X
17
1Y
#180000
07
0Y
#185000
02#
06"
0!"
0,#
b0 c"
b0 p"
0f
0q
16
1""
1Z"
0f"
0m"
b0 q"
1l"
0X
0J"
1B"
1r
17
1Y
#190000
07
0Y
#195000
1`"
b1011000000111001111010000001101111111111111111111111111111111100 b"
b1011000000111001111010000001101111111111111111111111111111111100 o"
1N"
b1011000000111001111010000001101111111111111111111111111111111100 1"
b1011000000111001111010000001101111111111111111111111111111111100 e"
b1011000000111001111010000001101111111111111111111111111111111100 P"
b1011000000111001111010000001101111111111111111111111111111111100 ]"
b1011000000111001111010000001101111111111111111111111111111111100 a
b1011000000111001111010000001101111111111111111111111111111111100 S"
b111110100010110100001011010110011101010100011110100001101011011 c"
b111110100010110100001011010110011101010100011110100001101011011 p"
12#
b10001110101011101101000011001100001001011001101010001110011111 Q"
b10001110101011101101000011001100001001011001101010001110011111 ^"
b10111110100010110100001011010110011101010100011110100001101011011 q"
b1100110011011100100111011001000011101010100011110100001101011111 a"
b1100110011011100100111011001000011101010100011110100001101011111 n"
1,#
b10010001110101011101101000011001100001001011001101010001110011111 _"
b111001101110001110011000001011100001001011001101010001110100011 O"
b111001101110001110011000001011100001001011001101010001110100011 \"
b1100110011011100100111011001000011101010100011110100001101011111 0"
b1100110011011100100111011001000011101010100011110100001101011111 d"
1!"
1N#
b111001101110001110011000001011100001001011001101010001110100011 `
b111001101110001110011000001011100001001011001101010001110100011 R"
12"
1q
15
1b
0K"
09#
1J"
1A"
17
1Y
#200000
07
0Y
#205000
b1001010 b"
b1001010 o"
b1001010 P"
b1001010 ]"
b1001010 1"
b1001010 e"
b1001010 a
b1001010 S"
0`"
b1111111111111111111111111111111111111111111111111111111111111011 O"
b1111111111111111111111111111111111111111111111111111111111111011 \"
b10100 a"
b10100 n"
02#
1("
b1111111111111111111111111111111111111111111111111111111111111011 `
b1111111111111111111111111111111111111111111111111111111111111011 R"
b10100 0"
b10100 d"
0'"
05
0N#
0,#
b10001110101011101101000011001100001001011001101010001110011111 u
b10001110101011101101000011001100001001011001101010001110011111 0#
1x
b1000110 Q"
b1000110 ^"
b111110100010110100001011010110011101010100011110100001101011011 %"
b111110100010110100001011010110011101010100011110100001101011011 6#
b1011111 c"
b1011111 p"
0w
06
0""
b10001110101011101101000011001100001001011001101010001110011111 X"
b10001110101011101101000011001100001001011001101010001110011111 d
1W"
1c
1V"
1T"
1["
b10000000000000000000000000000000000000000000000000000000001000110 _"
b111110100010110100001011010110011101010100011110100001101011011 j"
b111110100010110100001011010110011101010100011110100001101011011 4"
1i"
13"
1h"
1f"
1m"
b1011111 q"
b1111111111111111111111111111111111111111111111111111111111111011 .#
b1111111111111111111111111111111111111111111111111111111111111011 p
b10100 4#
b10100 ~
0|
1K"
19#
0B"
0r
b1001010 Q#
b1001010 4
b1001010 -"
17
1Y
#210000
07
0Y
#215000
b0 1"
b0 e"
b0 a
b0 S"
b0 b"
b0 o"
b1 Q"
b1 ^"
0N"
15#
b0 a"
b0 n"
02"
b0 O"
b0 \"
b1 _"
b0 P"
b0 ]"
1'"
1/#
b0 0"
b0 d"
b0 `
b0 R"
0b
1w
b1011111 %"
b1011111 6#
b0 c"
b0 p"
b1000110 u
b1000110 0#
b1011000000111001111010000001101111111111111111111111111111111100 Q#
b1011000000111001111010000001101111111111111111111111111111111100 4
b1011000000111001111010000001101111111111111111111111111111111100 -"
0A"
1|
bx 7#
bx &"
b1100110011011100100111011001000011101010100011110100001101011111 4#
b1100110011011100100111011001000011101010100011110100001101011111 ~
bx 1#
bx v
b111001101110001110011000001011100001001011001101010001110100011 .#
b111001101110001110011000001011100001001011001101010001110100011 p
0g"
0/"
1k"
15"
b1011111 j"
b1011111 4"
0h"
0f"
0m"
b0 q"
1U"
1_
1Y"
1e
b1000110 X"
b1000110 d
0V"
17
1Y
#220000
07
0Y
#225000
05#
0("
0/#
0x
0Y"
0e
0W"
0c
0Z"
0k"
05"
0i"
03"
0l"
bx 1#
bx v
bx 7#
bx &"
1E"
1"
17
1Y
#230000
07
0Y
#235000
b0 %"
b0 6#
b1011111 }
b1011111 3#
0'"
0!"
1#"
b0 u
b0 0#
0w
0q
b1000110 o
b1000110 -#
1s
1^
1."
16"
b111110100010110100001011010110011101010100011110100001101011011 0
b111110100010110100001011010110011101010100011110100001101011011 )"
b10001110101011101101000011001100001001011001101010001110011111 /
b10001110101011101101000011001100001001011001101010001110011111 y
1]
1f
0E"
0"
0I"
0D"
0!
0C"
b111110100010110100001011010110011101010100011110100001101011011 7#
b111110100010110100001011010110011101010100011110100001101011011 &"
b10001110101011101101000011001100001001011001101010001110011111 1#
b10001110101011101101000011001100001001011001101010001110011111 v
1V
1>"
17
1Y
b11101011 W
#240000
07
0Y
#245000
0^
0."
06"
b1 c"
b1 p"
0]
0f
1Z"
1f"
1m"
b1 q"
1l"
0J"
1D"
1!
1@"
1(
1.
1+
1%
0V
0>"
17
1Y
#250000
07
0Y
