vOW_on_SIKE_HW-SW_co-design/src/hardware/fp_sub_and_add/fp_sub_and_compare_tb/fp_sub_and_compare_tb.vcd
$date
	Mon Jun 22 11:34:56 2020
$end
$version
	Icarus Verilog
$end
$timescale
	1ps
$end
$scope module fp_sub_and_compare_tb $end
$var wire 1 ! a_minus_b_bigger_than_const $end
$var wire 1 " carry_out $end
$var wire 1 # digit_out_valid $end
$var wire 32 $ digit_res [31:0] $end
$var wire 1 % done $end
$var reg 1 & carry_in $end
$var reg 1 ' clk $end
$var reg 1 ( clk_double $end
$var reg 32 ) digit_a [31:0] $end
$var reg 32 * digit_b [31:0] $end
$var reg 1 + digit_in_valid $end
$var integer 32 , file_a [31:0] $end
$var integer 32 - file_b [31:0] $end
$var integer 32 . file_comp [31:0] $end
$var integer 32 / file_res [31:0] $end
$var integer 32 0 i [31:0] $end
$var reg 1 1 rst $end
$var integer 32 2 scan_file_a [31:0] $end
$var integer 32 3 scan_file_b [31:0] $end
$var reg 1 4 start $end
$var integer 32 5 start_time [31:0] $end
$scope module DUT $end
$var wire 1 6 adder_carry_in $end
$var wire 1 7 adder_carry_out $end
$var wire 32 8 adder_digit_a [31:0] $end
$var wire 32 9 adder_digit_b [31:0] $end
$var wire 1 : adder_digit_in_valid $end
$var wire 1 ; adder_digit_out_valid $end
$var wire 32 < adder_digit_res [31:0] $end
$var wire 1 = adder_done $end
$var wire 1 > adder_start $end
$var wire 1 ? carry_in $end
$var wire 1 " carry_out $end
$var wire 1 @ clk $end
$var wire 32 A digit_a [31:0] $end
$var wire 32 B digit_b [31:0] $end
$var wire 1 C digit_in_valid $end
$var wire 1 # digit_out_valid $end
$var wire 32 D digit_res [31:0] $end
$var wire 1 E rst $end
$var wire 1 F start $end
$var wire 32 G zero_mem_dout [31:0] $end
$var reg 1 H a_minus_b_bigger_than_const $end
$var reg 1 I done $end
$var reg 1 J running $end
$var reg 4 K zero_mem_rd_addr [3:0] $end
$scope module fp_adder_inst $end
$var wire 1 L adder_carry_out $end
$var wire 32 M adder_din_a [31:0] $end
$var wire 32 N adder_din_b [31:0] $end
$var wire 32 O adder_dout [31:0] $end
$var wire 1 6 carry_in $end
$var wire 1 @ clk $end
$var wire 32 P digit_a [31:0] $end
$var wire 32 Q digit_b [31:0] $end
$var wire 1 : digit_in_valid $end
$var wire 1 E rst $end
$var wire 1 > start $end
$var reg 1 R adder_carry_in $end
$var reg 1 S carry_out $end
$var reg 4 T counter [3:0] $end
$var reg 1 U digit_out_valid $end
$var reg 32 V digit_res [31:0] $end
$var reg 1 W done $end
$var reg 1 X running $end
$scope module unit_adder_inst $end
$var wire 1 Y carry_in $end
$var wire 1 L carry_out $end
$var wire 32 Z din_a [31:0] $end
$var wire 32 [ din_b [31:0] $end
$var wire 32 \ dout [31:0] $end
$var wire 33 ] dout_full [32:0] $end
$upscope $end
$upscope $end
$scope module single_port_mem_inst_px2 $end
$var wire 4 ^ address [3:0] $end
$var wire 1 @ clock $end
$var wire 32 _ data [31:0] $end
$var wire 1 ` wr_en $end
$var reg 32 a q [31:0] $end
$upscope $end
$upscope $end
$upscope $end
$enddefinitions $end
#0
$dumpvars
bx a
0`
b0 _
bx ^
bx ]
bx \
b0 [
b0 Z
xY
xX
xW
bx V
xU
bx T
xS
xR
b11111111111111111111111111111111 Q
b0 P
bx O
b0 N
b0 M
xL
bx K
xJ
xI
xH
bx G
0F
0E
bx D
0C
b0 B
b0 A
0@
0?
0>
x=
bx <
x;
0:
b11111111111111111111111111111111 9
b0 8
x7
06
b0 5
04
bx 3
bx 2
01
bx 0
bx /
bx .
bx -
bx ,
0+
b0 *
b0 )
0(
0'
0&
x%
bx $
x#
x"
x!
$end
#5000
0W
0=
0U
0;
0#
1(
1'
1@
#10000
0'
0@
#15000
0(
0I
0%
1'
1@
#20000
0'
0@
#25000
1(
1'
1@
#30000
0'
0@
#35000
0(
1'
1@
#40000
0'
0@
#45000
1(
11
1E
1'
1@
#50000
0'
0@
#55000
b0 O
b0 \
0L
0(
0H
0!
b0 K
b0 ^
0J
b0 V
b0 <
b0 $
b0 D
0S
07
0"
b0 T
0R
0Y
b0 ]
0X
1'
1@
#60000
0'
0@
#65000
b0 a
b0 G
1(
01
0E
1'
1@
#70000
0'
0@
#75000
0(
1'
1@
#80000
0'
0@
#85000
1(
1'
1@
#90000
0'
0@
#95000
0(
1'
1@
#100000
0'
0@
#105000
1(
1'
1@
#110000
0'
0@
#115000
0(
1'
1@
#120000
0'
0@
#125000
1(
1'
1@
#130000
0'
0@
#135000
0(
1'
1@
#140000
0'
0@
#145000
1(
1'
1@
#150000
0'
0@
#155000
0(
1'
1@
#160000
0'
0@
#165000
1(
1&
16
1?
14
1>
1F
1'
1@
b10100101 5
#170000
0'
0@
#175000
b1 O
b1 \
0(
1J
1R
1Y
b1 ]
1X
0&
06
0?
04
0>
0F
1'
1@
#180000
0'
0@
#185000
1(
1'
1@
b10000000000000000000000000000101 /
b10000000000000000000000000000100 -
b10000000000000000000000000000011 ,
#190000
1L
b101110101010010110101011000011 O
b101110101010010110101011000011 \
b1010000101110010000010001000111 M
b1010000101110010000010001000111 Z
b100101110101010010110101011000011 ]
b11011101111100000110011001111011 N
b11011101111100000110011001111011 [
1+
1:
1C
b11011101111100000110011001111011 9
b11011101111100000110011001111011 Q
b1 3
b100010000011111001100110000100 *
b100010000011111001100110000100 B
b1 2
b1010000101110010000010001000111 )
b1010000101110010000010001000111 8
b1010000101110010000010001000111 P
b1010000101110010000010001000111 A
b0 0
0'
0@
#195000
0(
b1 K
b1 ^
b101110101010010110101011000011 V
b101110101010010110101011000011 <
b101110101010010110101011000011 $
b101110101010010110101011000011 D
1U
1;
1#
b1 T
1'
1@
#200000
1+
1:
1C
0L
b10110000011110011010110100 N
b10110000011110011010110100 [
b10101001011011101110110111000011 O
b10101001011011101110110111000011 \
b10110000011110011010110100 9
b10110000011110011010110100 Q
b10101001011011101110110111000011 ]
b10100110101011010000011100001110 M
b10100110101011010000011100001110 Z
0'
0@
b11111101001111100001100101001011 *
b11111101001111100001100101001011 B
b10100110101011010000011100001110 )
b10100110101011010000011100001110 8
b10100110101011010000011100001110 P
b10100110101011010000011100001110 A
b1 0
#205000
b10101001011011101110110111000010 O
b10101001011011101110110111000010 \
b10101001011011101110110111000011 V
b10101001011011101110110111000011 <
b10101001011011101110110111000011 $
b10101001011011101110110111000011 D
b10 T
0R
0Y
b10101001011011101110110111000010 ]
b10 K
b10 ^
1(
1'
1@
#210000
1+
1:
1C
b10001010100110100010100111110011 N
b10001010100110100010100111110011 [
b11111000001100110010110000010101 O
b11111000001100110010110000010101 \
b10001010100110100010100111110011 9
b10001010100110100010100111110011 Q
b11111000001100110010110000010101 ]
b1101101100110010000001000100010 M
b1101101100110010000001000100010 Z
0'
0@
b1110101011001011101011000001100 *
b1110101011001011101011000001100 B
b1101101100110010000001000100010 )
b1101101100110010000001000100010 8
b1101101100110010000001000100010 P
b1101101100110010000001000100010 A
b10 0
#215000
0(
b11 K
b11 ^
b11111000001100110010110000010101 V
b11111000001100110010110000010101 <
b11111000001100110010110000010101 $
b11111000001100110010110000010101 D
b11 T
1'
1@
#220000
1+
1:
1C
b1010111001010000010000101101000 N
b1010111001010000010000101101000 [
b10110100111001011010000110100 O
b10110100111001011010000110100 \
1L
b1010111001010000010000101101000 9
b1010111001010000010000101101000 Q
b100010110100111001011010000110100 ]
b10111111011101001001001011001100 M
b10111111011101001001001011001100 Z
0'
0@
b10101000110101111101111010010111 *
b10101000110101111101111010010111 B
b10111111011101001001001011001100 )
b10111111011101001001001011001100 8
b10111111011101001001001011001100 P
b10111111011101001001001011001100 A
b11 0
#225000
b10110100111001011010000110101 O
b10110100111001011010000110101 \
b10110100111001011010000110100 V
b10110100111001011010000110100 <
b10110100111001011010000110100 $
b10110100111001011010000110100 D
b100 T
1R
1Y
b100010110100111001011010000110101 ]
b100 K
b100 ^
1(
1'
1@
#230000
1+
1:
1C
b100101010000111010001011010110 N
b100101010000111010001011010110 [
b1111101011010001110101111001001 O
b1111101011010001110101111001001 \
0L
b100101010000111010001011010110 9
b100101010000111010001011010110 Q
b1111101011010001110101111001001 ]
b1011000001001010100100011110010 M
b1011000001001010100100011110010 Z
0'
0@
b11011010101111000101110100101001 *
b11011010101111000101110100101001 B
b1011000001001010100100011110010 )
b1011000001001010100100011110010 8
b1011000001001010100100011110010 P
b1011000001001010100100011110010 A
b100 0
#235000
b1111101011010001110101111001000 O
b1111101011010001110101111001000 \
0(
b101 K
b101 ^
b1111101011010001110101111001001 V
b1111101011010001110101111001001 <
b1111101011010001110101111001001 $
b1111101011010001110101111001001 D
b101 T
0R
0Y
b1111101011010001110101111001000 ]
1'
1@
#240000
1+
1:
1C
1L
b1111001110001101101001100011111 N
b1111001110001101101001100011111 [
b1101111001110000001101000011 O
b1101111001110000001101000011 \
b1111001110001101101001100011111 9
b1111001110001101101001100011111 Q
b100001101111001110000001101000011 ]
b10010100001000000011000000100100 M
b10010100001000000011000000100100 Z
0'
0@
b10000110001110010010110011100000 *
b10000110001110010010110011100000 B
b10010100001000000011000000100100 )
b10010100001000000011000000100100 8
b10010100001000000011000000100100 P
b10010100001000000011000000100100 A
b101 0
#245000
b1101111001110000001101000100 O
b1101111001110000001101000100 \
b1101111001110000001101000011 V
b1101111001110000001101000011 <
b1101111001110000001101000011 $
b1101111001110000001101000011 D
b110 T
1R
1Y
b100001101111001110000001101000100 ]
b110 K
b110 ^
1(
1'
1@
#250000
1+
1:
1C
0L
b1001110100000110101010100000110 N
b1001110100000110101010100000110 [
b11100010000100001000110101100110 O
b11100010000100001000110101100110 \
b1001110100000110101010100000110 9
b1001110100000110101010100000110 Q
b11100010000100001000110101100110 ]
b10010011100011010011100001011111 M
b10010011100011010011100001011111 Z
0'
0@
b10110001011111001010101011111001 *
b10110001011111001010101011111001 B
b10010011100011010011100001011111 )
b10010011100011010011100001011111 8
b10010011100011010011100001011111 P
b10010011100011010011100001011111 A
b110 0
#255000
b11100010000100001000110101100101 O
b11100010000100001000110101100101 \
0(
b111 K
b111 ^
b11100010000100001000110101100110 V
b11100010000100001000110101100110 <
b11100010000100001000110101100110 $
b11100010000100001000110101100110 D
b111 T
0R
0Y
b11100010000100001000110101100101 ]
1'
1@
#260000
1+
1:
1C
b10100000000000011000000111000011 N
b10100000000000011000000111000011 [
b10110101111111001001110000011101 O
b10110101111111001001110000011101 \
b10100000000000011000000111000011 9
b10100000000000011000000111000011 Q
b10110101111111001001110000011101 ]
b10101111110110001101001011010 M
b10101111110110001101001011010 Z
0'
0@
b1011111111111100111111000111100 *
b1011111111111100111111000111100 B
b10101111110110001101001011010 )
b10101111110110001101001011010 8
b10101111110110001101001011010 P
b10101111110110001101001011010 A
b111 0
#265000
b10110101111111001001110000011101 V
b10110101111111001001110000011101 <
b10110101111111001001110000011101 $
b10110101111111001001110000011101 D
b1000 T
b1000 K
b1000 ^
1(
1'
1@
#270000
1+
1:
1C
b10000001000001010011110100011000 N
b10000001000001010011110100011000 [
b101001101001111101100100001000 O
b101001101001111101100100001000 \
1L
b10000001000001010011110100011000 9
b10000001000001010011110100011000 Q
b100101001101001111101100100001000 ]
b10101000101000101001101111110000 M
b10101000101000101001101111110000 Z
0'
0@
b1111110111110101100001011100111 *
b1111110111110101100001011100111 B
b10101000101000101001101111110000 )
b10101000101000101001101111110000 8
b10101000101000101001101111110000 P
b10101000101000101001101111110000 A
b1000 0
#275000
b101001101001111101100100001001 O
b101001101001111101100100001001 \
0(
b1001 K
b1001 ^
b101001101001111101100100001000 V
b101001101001111101100100001000 <
b101001101001111101100100001000 $
b101001101001111101100100001000 D
b1001 T
1R
1Y
b100101001101001111101100100001001 ]
1'
1@
#280000
1+
1:
1C
b111011111010101010000011111010 N
b111011111010101010000011111010 [
b10100011111111101111011001101100 O
b10100011111111101111011001101100 \
0L
b111011111010101010000011111010 9
b111011111010101010000011111010 Q
b10100011111111101111011001101100 ]
b1101000000101000101010101110001 M
b1101000000101000101010101110001 Z
0'
0@
b11000100000101010101111100000101 *
b11000100000101010101111100000101 B
b1101000000101000101010101110001 )
b1101000000101000101010101110001 8
b1101000000101000101010101110001 P
b1101000000101000101010101110001 A
b1001 0
#285000
b10100011111111101111011001101011 O
b10100011111111101111011001101011 \
b10100011111111101111011001101100 V
b10100011111111101111011001101100 <
b10100011111111101111011001101100 $
b10100011111111101111011001101100 D
b1010 T
0R
0Y
b10100011111111101111011001101011 ]
b1010 K
b1010 ^
1(
1'
1@
#290000
1+
1:
1C
b1011111101011010010000011000110 N
b1011111101011010010000011000110 [
b1110101110110101110010101101101 O
b1110101110110101110010101101101 \
b1011111101011010010000011000110 9
b1011111101011010010000011000110 Q
b1110101110110101110010101101101 ]
b10110001011011100010010100111 M
b10110001011011100010010100111 Z
0'
0@
b10100000010100101101111100111001 *
b10100000010100101101111100111001 B
b10110001011011100010010100111 )
b10110001011011100010010100111 8
b10110001011011100010010100111 P
b10110001011011100010010100111 A
b1010 0
#295000
0(
b1011 K
b1011 ^
b1110101110110101110010101101101 V
b1110101110110101110010101101101 <
b1110101110110101110010101101101 $
b1110101110110101110010101101101 D
b1011 T
1'
1@
#300000
1+
1:
1C
1L
b10000000101111100010011110110000 N
b10000000101111100010011110110000 [
b1000011000011101100000100010 O
b1000011000011101100000100010 \
b10000000101111100010011110110000 9
b10000000101111100010011110110000 Q
b100001000011000011101100000100010 ]
b10000111101000111011000001110010 M
b10000111101000111011000001110010 Z
0'
0@
b1111111010000011101100001001111 *
b1111111010000011101100001001111 B
b10000111101000111011000001110010 )
b10000111101000111011000001110010 8
b10000111101000111011000001110010 P
b10000111101000111011000001110010 A
b1011 0
#305000
b1000011000011101100000100011 O
b1000011000011101100000100011 \
b1000011000011101100000100010 V
b1000011000011101100000100010 <
b1000011000011101100000100010 $
b1000011000011101100000100010 D
b1100 T
1R
1Y
b100001000011000011101100000100011 ]
b1100 K
b1100 ^
1(
1'
1@
#310000
1+
1:
1C
b10110101101001001011111100101010 N
b10110101101001001011111100101010 [
b10111010000111101001000011010110 O
b10111010000111101001000011010110 \
0L
b10110101101001001011111100101010 9
b10110101101001001011111100101010 Q
b10111010000111101001000011010110 ]
b100011110011101000110101011 M
b100011110011101000110101011 Z
0'
0@
b1001010010110110100000011010101 *
b1001010010110110100000011010101 B
b100011110011101000110101011 )
b100011110011101000110101011 8
b100011110011101000110101011 P
b100011110011101000110101011 A
b1100 0
#315000
b10111010000111101001000011010101 O
b10111010000111101001000011010101 \
0(
b1101 K
b1101 ^
b10111010000111101001000011010110 V
b10111010000111101001000011010110 <
b10111010000111101001000011010110 $
b10111010000111101001000011010110 D
b1101 T
0R
0Y
b10111010000111101001000011010101 ]
1'
1@
#320000
1+
1:
1C
1L
b11111111111111111110010001011010 N
b11111111111111111110010001011010 [
b101111011000001011 O
b101111011000001011 \
b11111111111111111110010001011010 9
b11111111111111111110010001011010 Q
b100000000000000101111011000001011 ]
b110001000110110001 M
b110001000110110001 Z
0'
0@
b1101110100101 *
b1101110100101 B
b110001000110110001 )
b110001000110110001 8
b110001000110110001 P
b110001000110110001 A
b1101 0
#325000
b101111011000001100 O
b101111011000001100 \
1S
17
1"
1W
1=
b101111011000001011 V
b101111011000001011 <
b101111011000001011 $
b101111011000001011 D
b1110 T
1R
1Y
b100000000000000101111011000001100 ]
1(
1'
1@
#330000
b1 O
b1 \
0L
b0 M
b0 Z
b1 ]
b0 N
b0 [
0+
0:
0C
0'
0@
b10000000000000000000000000000011 .
b1110 0
#335000
0(
1I
1%
1H
1!
0W
0=
0U
0;
0#
b0 T
0X
1'
1@
#340000
0'
0@
#345000
0I
0%
b0 K
b0 ^
0J
1(
1'
1@
